12:48:47.281 Load:  50%
12:48:47.281 100%:  50mS
12:48:47.281 Sleep: 50mS
12:48:47.281 TMyLoadThread.Created (2)
12:48:47.281 Affinity 2 Mask 4
12:48:55.859 Load:  76%
12:48:55.859 100%:  76mS
12:48:55.859 Sleep: 24mS
12:48:56.312 Load:  77%
12:48:56.312 100%:  77mS
12:48:56.312 Sleep: 23mS
13:11:05.390 Factor 2,01096966930883
13:11:05.390 TMyLoadThread.Destroyed (2)
