15:09:23.468 TMonDriveThread.Created (7)
15:09:23.484 TMonDriveThread Started
15:09:23.484 Drive Path: \\ANTEC\G:
15:09:23.484 Drive Type: CD/DVD
15:09:23.484 Drive Size: 688Mb
15:09:23.484 Drive Free: 0,00b
15:09:34.500 TMonDriveThread Terminated
15:09:34.500 TMonDriveThread.Destroyed (7)
