10430;2425;0;69;
10430;2425;1;66;
10430;2425;2;69;
10430;2425;3;63;
10430;2424;0;67;
10430;2326;0;34;
10430;2326;1;34;
10430;2326;2;34;
10430;2326;3;34;
10430;2325;0;26;
10432;2326;0;26;
10432;2326;1;26;
10432;2326;2;26;
10432;2326;3;26;
10432;2325;0;6;
10432;2425;0;73;
10432;2425;1;71;
10432;2425;2;74;
10432;2425;3;71;
10432;2424;0;72;
10433;2326;0;6;
10433;2326;1;6;
10433;2326;2;6;
10433;2326;3;6;
10433;2325;0;5;
10433;2425;0;74;
10433;2425;1;72;
10433;2425;3;73;
10433;2424;0;73;
10435;2326;1;5;
10435;2326;2;5;
10435;2326;3;5;
10435;2325;0;2;
10435;2425;0;75;
10435;2424;0;74;
10436;2326;0;2;
10436;2326;1;2;
10436;2326;2;2;
10436;2326;3;2;
10436;2325;0;4;
10436;2425;0;74;
10436;2425;2;75;
10438;2326;0;4;
10438;2326;1;4;
10438;2326;2;4;
10438;2326;3;4;
10438;2325;0;2;
10439;2326;0;2;
10439;2326;1;2;
10439;2326;2;2;
10439;2326;3;2;
10439;2325;0;8;
10441;2326;0;8;
10441;2326;1;8;
10441;2326;2;8;
10441;2326;3;8;
10441;2325;0;1;
10441;2425;2;74;
10441;2424;0;73;
10442;2326;0;1;
10442;2326;1;1;
10442;2326;2;1;
10442;2326;3;1;
10442;2325;0;4;
10442;2425;3;72;
10444;2326;0;4;
10444;2326;1;4;
10444;2425;0;75;
10444;2425;2;75;
10444;2425;3;73;
10444;2424;0;74;
10445;2326;1;4;
10445;2326;2;4;
10445;2326;3;4;
10445;2425;0;74;
10445;2425;2;74;
10445;2425;3;72;
10445;2424;0;73;
10447;2326;0;4;
10447;2326;1;4;
10447;2326;3;4;
10447;2325;0;1;
10447;2425;1;73;
10447;2425;2;75;
10447;2425;3;73;
10447;2424;0;74;
10448;2326;0;1;
10448;2326;1;1;
10448;2326;2;1;
10448;2326;3;1;
10448;2325;0;4;
10448;2425;1;72;
10450;2326;0;4;
10450;2326;2;4;
10450;2325;0;5;
10450;2425;1;73;
10450;2425;2;76;
10452;2326;0;5;
10452;2326;1;5;
10452;2326;3;5;
10452;2325;0;2;
10452;2425;0;75;
10452;2425;1;72;
10452;2425;2;75;
10452;2425;3;72;
10453;2326;1;2;
10453;2326;3;2;
10453;2425;0;74;
10453;2425;2;74;
10453;2424;0;73;
10455;2326;0;2;
10455;2326;1;2;
10455;2326;2;2;
10455;2326;3;2;
10455;2325;0;5;
10455;2425;0;75;
10455;2425;3;73;
10455;2424;0;74;
10456;2326;0;5;
10456;2326;2;5;
10456;2326;3;5;
10456;2325;0;3;
10456;2425;0;74;
10456;2425;2;75;
10458;2326;0;3;
10458;2326;2;3;
10458;2326;3;3;
10458;2325;0;2;
10458;2425;1;73;
10459;2326;0;2;
10459;2326;1;2;
10459;2326;2;2;
10459;2326;3;2;
10459;2425;0;75;
10461;2326;0;2;
10461;2326;1;2;
10461;2326;2;2;
10461;2326;3;2;
10461;2325;0;3;
10461;2425;1;72;
10461;2425;2;74;
10461;2425;3;72;
10461;2424;0;73;
10462;2326;0;3;
10462;2326;2;3;
10462;2325;0;2;
10462;2425;0;74;
10462;2425;1;73;
10462;2425;2;76;
10462;2425;3;73;
10462;2424;0;74;
10464;2326;0;2;
10464;2326;1;2;
10464;2326;2;2;
10464;2326;3;2;
10464;2325;0;4;
10464;2425;0;75;
10464;2425;1;72;
10464;2425;2;75;
10464;2425;3;72;
